<?xml version="1.0" encoding="UTF-8"?>
<harvest>
<OAI-PMH xmlns="http://www.openarchives.org/OAI/2.0/" xmlns:xsi="http://www.w3.org/2001/XMLSchema-instance" xsi:schemaLocation="http://www.openarchives.org/OAI/2.0/ http://www.openarchives.org/OAI/2.0/OAI-PMH.xsd"><responseDate>2013-10-14T08:05:03Z</responseDate><request verb="Identify">http://services.d-nb.de/oai/repository</request><Identify><repositoryName>OAI-Repository of the German National Library</repositoryName><baseURL>http://services.d-nb.de/oai/repository</baseURL><protocolVersion>2.0</protocolVersion><adminEmail>oai-repository@dnb.de</adminEmail><earliestDatestamp>1945-01-01+01:00</earliestDatestamp><deletedRecord>transient</deletedRecord><granularity>YYYY-MM-DDThh:mm:ssZ</granularity><description>Version 1.3.22</description></Identify></OAI-PMH>
<OAI-PMH xmlns="http://www.openarchives.org/OAI/2.0/" xmlns:xsi="http://www.w3.org/2001/XMLSchema-instance" xsi:schemaLocation="http://www.openarchives.org/OAI/2.0/ http://www.openarchives.org/OAI/2.0/OAI-PMH.xsd"><responseDate>2013-10-14T08:05:03Z</responseDate><request verb="ListMetadataFormats">http://services.d-nb.de/oai/repository</request><ListMetadataFormats><metadataFormat><metadataPrefix>MARC21plus-xml</metadataPrefix><schema>http://www.loc.gov/standards/marcxml/schema/MARC21slim.xsd</schema><metadataNamespace>http://www.ddb.de/professionell/MARC21/plus</metadataNamespace></metadataFormat><metadataFormat><metadataPrefix>xMetaDiss</metadataPrefix><schema>http://files.dnb.de/standards/xmetadiss/xmetadiss.xsd</schema><metadataNamespace>http://www.d-nb.de/standards/xMetaDiss/</metadataNamespace></metadataFormat><metadataFormat><metadataPrefix>oai_dc</metadataPrefix><schema>http://www.openarchives.org/OAI/2.0/oai_dc.xsd</schema><metadataNamespace>http://www.openarchives.org/OAI/2.0/oai_dc/</metadataNamespace></metadataFormat><metadataFormat><metadataPrefix>MARC21-Test-xml</metadataPrefix><schema>http://www.loc.gov/standards/marcxml/schema/MARC21slim.xsd</schema><metadataNamespace>http://www.loc.gov/MARC21/slim</metadataNamespace></metadataFormat><metadataFormat><metadataPrefix>RDFxml</metadataPrefix><schema>http://www.w3.org/2000/07/rdf.xsd</schema><metadataNamespace>http://www.w3.org/1999/02/22-rdf-syntax-ns</metadataNamespace></metadataFormat><metadataFormat><metadataPrefix>MARC21-xml</metadataPrefix><schema>http://www.loc.gov/standards/marcxml/schema/MARC21slim.xsd</schema><metadataNamespace>http://www.loc.gov/MARC21/slim</metadataNamespace></metadataFormat><metadataFormat><metadataPrefix>MABxml-1-plus</metadataPrefix><schema>http://files.dnb.de/standards/formate/mabxml-1.xsd</schema><metadataNamespace>http://www.ddb.de/professionell/mabxml/mabxml-1.xsd</metadataNamespace></metadataFormat><metadataFormat><metadataPrefix>MABxml-1</metadataPrefix><schema>http://files.dnb.de/standards/formate/mabxml-1.xsd</schema><metadataNamespace>http://www.ddb.de/professionell/mabxml/mabxml-1.xsd</metadataNamespace></metadataFormat><metadataFormat><metadataPrefix>PicaPlus-xml</metadataPrefix><schema>http://files.dnb.de/standards/formate/ppxml-1.0.xsd</schema><metadataNamespace>http://www.oclcpica.org/xmlns/ppxml-1.0</metadataNamespace></metadataFormat><metadataFormat><metadataPrefix>ONIX-xml</metadataPrefix><schema>http://www.editeur.org/onix/2.1/short/ONIX_BookProduct_Release2.1_short.xsd</schema><metadataNamespace>http://www.editeur.org/onix/2.1/short/ONIX_BookProduct_Release2.1_short</metadataNamespace></metadataFormat><metadataFormat><metadataPrefix>sync-repo-xml</metadataPrefix><schema>http://files.dnb.de/standards/formate/syncrepo.xsd</schema><metadataNamespace>http://www.d-nb.de/schemas/syncrepo</metadataNamespace></metadataFormat><metadataFormat><metadataPrefix>MABxml-Test</metadataPrefix><schema>http://files.dnb.de/standards/formate/mabxml-1.xsd</schema><metadataNamespace>http://www.ddb.de/professionell/mabxml/mabxml-1.xsd</metadataNamespace></metadataFormat></ListMetadataFormats></OAI-PMH>
<OAI-PMH xmlns="http://www.openarchives.org/OAI/2.0/" xmlns:xsi="http://www.w3.org/2001/XMLSchema-instance" xsi:schemaLocation="http://www.openarchives.org/OAI/2.0/ http://www.openarchives.org/OAI/2.0/OAI-PMH.xsd"><responseDate>2013-10-14T08:05:03Z</responseDate><request verb="ListSets">http://services.d-nb.de/oai/repository</request><ListSets><set><setSpec>dnb</setSpec><setName>Deutsche Nationalbibliografie (DNB)</setName></set><set><setSpec>dnb:sg0</setSpec><setName>Deutsche Nationalbibliografie (DNB) - Allgemeines, Informationswissenschaft</setName> </set></ListSets></OAI-PMH>
<OAI-PMH xmlns="http://www.openarchives.org/OAI/2.0/" xmlns:xsi="http://www.w3.org/2001/XMLSchema-instance" xsi:schemaLocation="http://www.openarchives.org/OAI/2.0/ http://www.openarchives.org/OAI/2.0/OAI-PMH.xsd"><responseDate>2013-10-14T08:05:03Z</responseDate><request from="2013-10-14" metadataPrefix="RDFxml" set="authorities" until="2013-10-14" verb="ListRecords">http://services.d-nb.de/oai/repository</request><ListRecords xsi:schemaLocation="http://www.w3.org/1999/02/22-rdf-syntax-ns http://www.w3.org/2000/07/rdf.xsd"><record><header><identifier>oai:dnb.de/authorities/1042904456</identifier><datestamp>2013-10-14T08:03:03Z</datestamp><setSpec>authorities</setSpec></header><metadata><rdf:RDF xmlns:bibo="http://purl.org/ontology/bibo/" xmlns:dc="http://purl.org/dc/elements/1.1/" xmlns:dcterms="http://purl.org/dc/terms/" xmlns:foaf="http://xmlns.com/foaf/0.1/" xmlns:gnd="http://d-nb.info/standards/elementset/gnd#" xmlns:isbd="http://iflastandards.info/ns/isbd/elements/" xmlns:lib="http://purl.org/library/" xmlns:marcRole="http://id.loc.gov/vocabulary/relators/" xmlns:owl="http://www.w3.org/2002/07/owl#" xmlns:rda="http://rdvocab.info/" xmlns:rdf="http://www.w3.org/1999/02/22-rdf-syntax-ns#" xmlns:rdfs="http://www.w3.org/2000/01/rdf-schema#" xmlns:skos="http://www.w3.org/2004/02/skos/core#" xmlns:umbel="http://umbel.org/umbel#">

	<rdf:Description rdf:about="http://d-nb.info/gnd/1042904456">
		<rdf:type rdf:resource="http://d-nb.info/standards/elementset/gnd#DifferentiatedPerson"/>
		<gnd:gndIdentifier>1042904456</gnd:gndIdentifier>
		<gnd:dateOfEstablishment>20.09.1949</gnd:dateOfEstablishment>
		<gnd:dateOfTermination>22.10.1957</gnd:dateOfTermination>
		<gnd:hierarchicalSuperiorOfTheCorporateBody rdf:resource="http://d-nb.info/gnd/4011889-7"/>
		<gnd:placeOfBusiness rdf:resource="http://d-nb.info/gnd/4007666-0"/>
		<gnd:spatialAreaOfActivity rdf:resource="http://d-nb.info/gnd/4042570-8"/>
		<gnd:spatialAreaOfActivity rdf:resource="http://d-nb.info/gnd/4011889-7"/>
		<rdf:type rdf:resource="http://d-nb.info/standards/elementset/gnd#OrganOfCorporateBody"/>
	</rdf:Description>
</rdf:RDF></metadata></record><resumptionToken completeListSize="669" cursor="669"/></ListRecords></OAI-PMH>
</harvest>
